Concatenating multiple references • clustifyrdata
…
#An example of reference matrix generation for GEO record GSE124952
library(dplyr)
library(Seurat)
library(clustifyr)
library(tidyverse)

mat_PFC <- read_csv("ftp://ftp.ncbi.nlm.nih.gov/geo/series/GSE124nnn/GSE124952/suppl/GSE124952_expression_matrix.csv.gz",  n_max = 100)
mat_PFC <- mat_PFC %>%
  column_to_rownames('X1')

meta_PFC <- read_csv("ftp://ftp.ncbi.nlm.nih.gov/geo/series/GSE124nnn/GSE124952/suppl/GSE124952_meta_data.csv.gz")
meta_PFC

## # A tibble: 35,360 x 11
##    X1    nGene  nUMI percent.mito Sample treatment Period stage CellType
##    <chr> <dbl> <dbl>        <dbl> <chr>  <chr>     <chr>  <chr> <chr>   
##  1 PFCS…  5173 24107       0.0165 PFCSa… Saline    withd… with… Astro   
##  2 PFCS…  2267  4852       0.0831 PFCSa… Saline    withd… with… Astro   
##  3 PFCS…  2805  6758       0.0192 PFCSa… Cocaine   withd… with… Astro   
##  4 PFCS…  1091  2446       0.0384 PFCSa… Saline    Maint… Main… Astro   
##  5 PFCS…  1774  4416       0.0335 PFCSa… Saline    withd… with… Astro   
##  6 PFCS…  1166  2631       0.0262 PFCSa… Saline    Maint… Main… Astro   
##  7 PFCS…  1171  2592       0.0309 PFCSa… Saline    Maint… Main… Astro   
##  8 PFCS…  1446  3718       0.0272 PFCSa… Saline    Maint… Main… Astro   
##  9 PFCS…  1043  2413       0.0199 PFCSa… Saline    Maint… Main… Astro   
## 10 PFCS…  1319  2846       0.0232 PFCSa… Saline    Maint… Main… Astro   
## # … with 35,350 more rows, and 2 more variables: L2_clusters <chr>,
## #   DevStage <chr>
…
